<?xml version="1.0" encoding="utf-8"?>
<!-- Generator: Adobe Illustrator 16.0.3, SVG Export Plug-In . SVG Version: 6.00 Build 0)  -->
<!DOCTYPE svg PUBLIC "-//W3C//DTD SVG 1.1//EN" "http://www.w3.org/Graphics/SVG/1.1/DTD/svg11.dtd">
<svg version="1.1" id="Layer_1" xmlns="http://www.w3.org/2000/svg" xmlns:xlink="http://www.w3.org/1999/xlink" x="0px" y="0px"
	 width="303.643px" height="268.025px" viewBox="0 0 303.643 268.025" enable-background="new 0 0 303.643 268.025"
	 xml:space="preserve">
<g>
	<path fill="#E1D951" d="M151.629,121.619c-14.009,24.389-40.317,40.815-70.461,40.815c-2.214,0-4.407-0.089-6.577-0.263
		c-2.494,7.803-3.84,16.118-3.84,24.749c0,44.846,36.355,81.2,81.201,81.2s81.201-36.354,81.201-81.2
		c0-8.557-1.322-16.801-3.775-24.545c-2.354,0.205-4.737,0.31-7.144,0.31C191.986,162.685,165.601,146.148,151.629,121.619"/>
	<path fill="#4EB1CB" d="M222.234,0.284c-30.145,0-56.452,16.425-70.461,40.815c6.742,11.837,10.596,25.538,10.596,40.135
		c0,8.63-1.346,16.945-3.841,24.749c33.387,2.676,61.079,25.55,70.85,56.394c41.501-3.616,74.057-38.451,74.057-80.891
		C303.434,36.639,267.079,0.284,222.234,0.284"/>
	<path fill="#459740" d="M158.528,105.982c-1.754,5.489-4.077,10.725-6.898,15.637c13.972,24.529,40.356,41.066,70.604,41.066
		c2.406,0,4.79-0.104,7.144-0.31C219.607,131.532,191.914,108.658,158.528,105.982"/>
	<path fill="#CF5C60" d="M81.168,0.033c-44.846,0-81.201,36.355-81.201,81.201c0,42.631,32.854,77.589,74.624,80.938
		c9.771-30.568,37.155-53.262,70.217-56.142c-2.453-7.745-3.775-15.989-3.775-24.545c0-14.701,3.907-28.491,10.74-40.386
		C137.8,16.57,111.416,0.033,81.168,0.033"/>
	<path fill="#B74E1E" d="M144.808,106.03c-33.062,2.88-60.446,25.574-70.217,56.142c2.17,0.174,4.362,0.263,6.577,0.263
		c30.145,0,56.452-16.426,70.461-40.815C148.839,116.72,146.541,111.497,144.808,106.03"/>
	<path fill="#3F404C" d="M151.773,41.099c-6.833,11.895-10.74,25.685-10.74,40.386c0,8.556,1.322,16.8,3.775,24.545
		c2.353-0.205,4.737-0.31,7.143-0.31c2.215,0,4.407,0.088,6.576,0.263c2.495-7.803,3.841-16.118,3.841-24.749
		C162.368,66.636,158.515,52.936,151.773,41.099"/>
	<path fill="#383618" d="M151.951,105.719c-2.406,0-4.79,0.105-7.143,0.31c1.732,5.468,4.03,10.691,6.821,15.59
		c2.821-4.912,5.145-10.148,6.898-15.637C156.359,105.808,154.166,105.719,151.951,105.719"/>
</g>
</svg>
