<?xml version="1.0" encoding="utf-8"?>
<!-- Generator: Adobe Illustrator 16.0.3, SVG Export Plug-In . SVG Version: 6.00 Build 0)  -->
<!DOCTYPE svg PUBLIC "-//W3C//DTD SVG 1.1//EN" "http://www.w3.org/Graphics/SVG/1.1/DTD/svg11.dtd">
<svg version="1.1" id="Layer_1" xmlns="http://www.w3.org/2000/svg" xmlns:xlink="http://www.w3.org/1999/xlink" x="0px" y="0px"
	 width="1574px" height="832px" viewBox="0 0 1574 832" enable-background="new 0 0 1574 832" xml:space="preserve">
<g opacity="0.2">
	<g>
		<path fill="#FFFFFF" d="M269.256,14.792H25.731c-1.929,0-3.49,1.562-3.49,3.489v5.583v8.373v2.792v0.698v182.819
			c0,1.927,1.561,3.49,3.49,3.49h243.525c1.928,0,3.489-1.563,3.489-3.49V35.726v-0.698v-2.792v-8.373V18.28
			C272.745,16.354,271.184,14.792,269.256,14.792z M272.048,218.544c0,1.54-1.251,2.792-2.792,2.792H25.731
			c-1.541,0-2.792-1.251-2.792-2.792V35.726h2.792h243.525h2.792V218.544L272.048,218.544z M272.048,29.446v2.79v2.792h-2.792
			H25.731h-2.792v-2.792v-2.79V18.281c0-1.541,1.251-2.791,2.792-2.791h243.525c1.54,0,2.792,1.25,2.792,2.791V29.446
			L272.048,29.446z M33.346,22.467c-1.508,0-2.731,1.251-2.731,2.791c0,1.541,1.223,2.792,2.731,2.792
			c1.508,0,2.731-1.25,2.731-2.792C36.077,23.718,34.852,22.467,33.346,22.467z M33.346,27.492c-1.208,0-2.185-1-2.185-2.233
			c0-1.233,0.978-2.232,2.185-2.232c1.206,0,2.184,0.999,2.184,2.232C35.53,26.492,34.551,27.492,33.346,27.492z M53.005,22.467
			c-1.508,0-2.731,1.251-2.731,2.791c0,1.541,1.223,2.792,2.731,2.792c1.509,0,2.731-1.25,2.731-2.792
			C55.736,23.718,54.513,22.467,53.005,22.467z M53.005,27.492c-1.207,0-2.184-1-2.184-2.233c0-1.233,0.979-2.232,2.184-2.232
			c1.206,0,2.184,0.999,2.184,2.232C55.189,26.492,54.209,27.492,53.005,27.492z M267.163,18.281H65.504
			c-1.157,0-2.094,0.936-2.094,2.094v9.769c0,1.155,0.937,2.093,2.094,2.093h201.659c1.156,0,2.093-0.938,2.093-2.093v-9.769
			C269.256,19.218,268.319,18.281,267.163,18.281z M268.559,30.144c0,0.77-1.323,1.395-2.094,1.395H65.504
			c-0.771,0-1.396-0.625-1.396-1.395v-9.769c0-0.771,0.625-1.396,1.396-1.396h201.659c0.769,0,1.396,0.624,1.396,1.396V30.144z
			 M43.176,22.467c-1.51,0-2.732,1.251-2.732,2.791c0,1.541,1.223,2.792,2.732,2.792c1.508,0,2.729-1.25,2.729-2.792
			C45.905,23.718,44.684,22.467,43.176,22.467z M43.176,27.492c-1.208,0-2.185-1-2.185-2.233c0-1.233,0.978-2.232,2.185-2.232
			c1.204,0,2.183,0.999,2.183,2.232C45.359,26.492,44.38,27.492,43.176,27.492z"/>
	</g>
</g>
<g opacity="0.2">
	<g>
		<path fill="#FFFFFF" d="M1238.048,423.778c-2.701,0-4.885,2.187-4.885,4.885c0,2.697,2.184,4.884,4.885,4.884
			c2.697,0,4.884-2.187,4.884-4.884C1242.932,425.965,1240.745,423.778,1238.048,423.778z M1238.048,433.007
			c-2.399,0-4.345-1.945-4.345-4.343c0-2.398,1.949-4.34,4.345-4.34c2.396,0,4.339,1.939,4.339,4.34
			C1242.387,431.062,1240.447,433.007,1238.048,433.007z M1285.495,274.453h-94.898c-0.771,0-1.396,0.625-1.396,1.396v140.954
			c0,0.771,0.623,1.396,1.396,1.396h94.898c0.771,0,1.396-0.626,1.396-1.396V275.848
			C1286.892,275.078,1286.267,274.453,1285.495,274.453z M1286.193,416.802c0,0.384-0.314,0.695-0.698,0.695h-94.898
			c-0.384,0-0.693-0.313-0.693-0.695V275.848c0-0.385,0.312-0.697,0.693-0.697h94.898c0.384,0,0.698,0.312,0.698,0.697V416.802z
			 M1293.869,260.498h-111.646c-3.854,0-6.978,3.123-6.978,6.978v164.677c0,3.854,3.124,6.978,6.978,6.978h111.646
			c3.854,0,6.978-3.124,6.978-6.978V267.476C1300.847,263.619,1297.726,260.498,1293.869,260.498z M1300.148,432.152
			c0,3.467-2.813,6.276-6.279,6.276h-111.646c-3.469,0-6.279-2.812-6.279-6.276V267.476c0-3.469,2.813-6.28,6.279-6.28h111.646
			c3.467,0,6.279,2.812,6.279,6.28V432.152z"/>
	</g>
</g>
<path opacity="0.05" fill="#FFFFFF" enable-background="new    " d="M151.009,407.888H81.23c-3.855,0-6.977-3.125-6.977-6.978
	V385.56v-0.698V271.82v-0.699v-11.164c0-3.853,3.122-6.977,6.977-6.977h69.779c3.854,0,6.978,3.124,6.978,6.977V384.86v0.698v15.352
	C157.987,404.763,154.862,407.888,151.009,407.888z M157.289,385.56L157.289,385.56v-0.698l0,0V271.82l0,0v-0.699l0,0v-11.164
	c0-3.468-2.813-6.28-6.28-6.28H81.23c-3.468,0-6.279,2.813-6.279,6.28v11.164l0,0v0.699l0,0V384.86l0,0v0.698l0,0v15.352
	c0,3.467,2.812,6.28,6.279,6.28h69.779c3.468,0,6.28-2.813,6.28-6.28V385.56z M79.137,385.56H78.44v-0.698V275.31v-0.698l0,0h0.697
	l0,0H153.8v0.698v109.55v0.698h-0.699L79.137,385.56L79.137,385.56z M153.102,275.31H79.137v109.55h73.965V275.31L153.102,275.31z
	 M122.4,266.936h-12.561c-1.156,0-2.093-0.937-2.093-2.094c0-1.158,0.937-2.094,2.093-2.094H122.4c1.156,0,2.093,0.936,2.093,2.094
	C124.494,266,123.555,266.936,122.4,266.936z M122.4,263.272h-12.561c-0.868,0-1.57,0.702-1.57,1.57c0,0.866,0.702,1.57,1.57,1.57
	H122.4c0.866,0,1.569-0.704,1.569-1.57C123.969,263.975,123.265,263.272,122.4,263.272z M97.279,266.936
	c-1.156,0-2.093-0.937-2.093-2.094c0-1.158,0.937-2.094,2.093-2.094c1.157,0,2.094,0.936,2.094,2.094
	C99.373,266,98.435,266.936,97.279,266.936z M97.279,263.446c-0.77,0-1.396,0.626-1.396,1.396c0,0.77,0.625,1.396,1.396,1.396
	s1.396-0.626,1.396-1.396S98.049,263.446,97.279,263.446z M115.421,388.35c4.24,0,7.676,3.438,7.676,7.677
	c0,4.236-3.437,7.674-7.676,7.674c-4.239,0-7.675-3.438-7.675-7.674C107.746,391.787,111.182,388.35,115.421,388.35z
	 M115.421,403.221c3.975,0,7.195-3.221,7.195-7.192c0-3.977-3.221-7.196-7.195-7.196c-3.973,0-7.196,3.222-7.196,7.196
	C108.225,400,111.447,403.221,115.421,403.221z M113.982,392.666h2.878c1.061,0,1.919,0.861,1.919,1.92v2.88
	c0,1.062-0.858,1.919-1.919,1.919h-2.878c-1.059,0-1.919-0.856-1.919-1.919v-2.88C112.063,393.527,112.923,392.666,113.982,392.666z
	 M112.543,397.465c0,0.794,0.643,1.439,1.438,1.439h2.878c0.795,0,1.441-0.646,1.441-1.439v-2.881c0-0.792-0.643-1.438-1.441-1.438
	h-2.878c-0.794,0-1.438,0.646-1.438,1.438V397.465z"/>
<path opacity="0.2" fill="#FFFFFF" enable-background="new    " d="M98.863,812.079H29.085c-3.854,0-6.978-3.124-6.978-6.979
	v-15.354v-0.695v-113.04v-0.698V664.15c0-3.854,3.123-6.979,6.978-6.979h69.778c3.855,0,6.978,3.125,6.978,6.979v124.9v0.695V805.1
	C105.841,808.954,102.718,812.079,98.863,812.079z M105.144,789.748L105.144,789.748v-0.695l0,0V676.011l0,0v-0.698l0,0V664.15
	c0-3.47-2.813-6.28-6.281-6.28H29.085c-3.467,0-6.279,2.812-6.279,6.28v11.162l0,0v0.696l0,0v113.042l0,0v0.695l0,0V805.1
	c0,3.47,2.812,6.279,6.279,6.279h69.778c3.468,0,6.281-2.812,6.281-6.279V789.748z M26.992,789.748h-0.697v-0.695V679.501v-0.697
	l0,0h0.697l0,0h74.663v0.697v109.552v0.695h-0.698H26.992z M100.957,679.501H26.992v109.552h73.965V679.501z M70.254,671.127h-12.56
	c-1.156,0-2.093-0.937-2.093-2.094c0-1.154,0.937-2.093,2.093-2.093h12.56c1.157,0,2.093,0.938,2.093,2.093
	C72.348,670.19,71.411,671.127,70.254,671.127z M70.254,667.463h-12.56c-0.869,0-1.57,0.705-1.57,1.57c0,0.867,0.701,1.57,1.57,1.57
	h12.56c0.868,0,1.571-0.703,1.571-1.57C71.825,668.168,71.122,667.463,70.254,667.463z M45.135,671.127
	c-1.158,0-2.094-0.937-2.094-2.094c0-1.154,0.936-2.093,2.094-2.093c1.156,0,2.093,0.938,2.093,2.093
	C47.228,670.19,46.291,671.127,45.135,671.127z M45.135,667.638c-0.771,0-1.396,0.626-1.396,1.396c0,0.77,0.625,1.395,1.396,1.395
	c0.77,0,1.395-0.623,1.395-1.395C46.529,668.264,45.904,667.638,45.135,667.638z M63.277,792.542c4.239,0,7.676,3.436,7.676,7.674
	c0,4.24-3.437,7.678-7.676,7.678c-4.241,0-7.676-3.438-7.676-7.678C55.601,795.979,59.038,792.542,63.277,792.542z M63.277,807.412
	c3.974,0,7.195-3.222,7.195-7.196c0-3.977-3.222-7.191-7.195-7.191c-3.974,0-7.196,3.222-7.196,7.191
	C56.081,804.192,59.303,807.412,63.277,807.412z M61.837,796.858h2.879c1.061,0,1.92,0.856,1.92,1.918v2.879
	c0,1.06-0.859,1.92-1.92,1.92h-2.879c-1.059,0-1.919-0.86-1.919-1.92v-2.879C59.917,797.719,60.778,796.858,61.837,796.858z
	 M60.399,801.655c0,0.794,0.643,1.438,1.438,1.438h2.879c0.795,0,1.441-0.646,1.441-1.438v-2.879c0-0.795-0.642-1.438-1.441-1.438
	h-2.879c-0.793,0-1.438,0.645-1.438,1.438V801.655L60.399,801.655z"/>
<g opacity="0.1">
	<g>
		<path fill="#FFFFFF" d="M179.117,626.746c-2.698,0-4.885,2.188-4.885,4.886c0,2.697,2.187,4.884,4.885,4.884
			c2.696,0,4.883-2.187,4.883-4.884C184,628.934,181.813,626.746,179.117,626.746z M179.117,635.976
			c-2.399,0-4.343-1.942-4.343-4.343c0-2.396,1.945-4.341,4.343-4.341c2.396,0,4.341,1.944,4.341,4.341
			C183.458,634.03,181.516,635.976,179.117,635.976z M226.565,477.421h-94.898c-0.771,0-1.396,0.627-1.396,1.396V619.77
			c0,0.771,0.624,1.396,1.396,1.396h94.898c0.77,0,1.395-0.624,1.395-1.396V478.816C227.96,478.048,227.335,477.421,226.565,477.421
			z M227.264,619.77c0,0.388-0.313,0.697-0.699,0.697h-94.898c-0.385,0-0.698-0.312-0.698-0.697V478.816
			c0-0.388,0.313-0.697,0.698-0.697h94.898c0.385,0,0.699,0.312,0.699,0.697V619.77z M234.94,463.467H123.293
			c-3.855,0-6.977,3.123-6.977,6.979V635.12c0,3.853,3.122,6.978,6.977,6.978H234.94c3.854,0,6.977-3.125,6.977-6.978V470.444
			C241.917,466.59,238.793,463.467,234.94,463.467z M241.22,635.12c0,3.468-2.813,6.28-6.28,6.28H123.293
			c-3.468,0-6.279-2.813-6.279-6.28V470.444c0-3.472,2.811-6.28,6.279-6.28H234.94c3.467,0,6.28,2.812,6.28,6.28V635.12z"/>
	</g>
</g>
<g opacity="0.1">
	<g>
		<path fill="#FFFFFF" d="M424.197,68.521H312.553c-3.854,0-6.979,3.123-6.979,6.979v164.675c0,3.854,3.124,6.979,6.979,6.979
			h111.646c3.854,0,6.978-3.125,6.978-6.979V75.5C431.175,71.644,428.052,68.521,424.197,68.521z M430.478,240.175
			c0,3.468-2.811,6.281-6.278,6.281H312.553c-3.469,0-6.279-2.813-6.279-6.281V75.5c0-3.47,2.812-6.281,6.279-6.281h111.646
			c3.47,0,6.279,2.813,6.279,6.281L430.478,240.175L430.478,240.175z M415.825,82.477h-94.899c-0.77,0-1.396,0.625-1.396,1.396
			v140.952c0,0.77,0.626,1.395,1.396,1.395h94.899c0.771,0,1.396-0.625,1.396-1.395V83.873
			C417.221,83.102,416.595,82.477,415.825,82.477z M416.522,224.825c0,0.384-0.313,0.698-0.698,0.698h-94.899
			c-0.385,0-0.697-0.314-0.697-0.698V83.873c0-0.386,0.313-0.698,0.697-0.698h94.899c0.386,0,0.695,0.313,0.695,0.698
			L416.522,224.825L416.522,224.825z M368.375,231.802c-2.698,0-4.885,2.187-4.885,4.885c0,2.698,2.187,4.884,4.885,4.884
			c2.697,0,4.884-2.187,4.884-4.884C373.259,233.989,371.072,231.802,368.375,231.802z M368.375,241.029
			c-2.398,0-4.342-1.942-4.342-4.341c0-2.397,1.943-4.342,4.342-4.342s4.342,1.944,4.342,4.342S370.773,241.029,368.375,241.029z"/>
	</g>
</g>
<g opacity="0.1">
	<g>
		<path fill="#FFFFFF" d="M526.592,64.613c-1.505,0-2.731,1.251-2.731,2.792s1.226,2.791,2.731,2.791s2.729-1.25,2.729-2.791
			C529.32,65.863,528.097,64.613,526.592,64.613z M526.591,69.638c-1.208,0-2.188-1-2.188-2.233c0-1.234,0.981-2.234,2.188-2.234
			c1.203,0,2.182,1,2.182,2.234C528.772,68.638,527.794,69.638,526.591,69.638z M760.407,60.426H558.75
			c-1.16,0-2.099,0.937-2.099,2.094v9.769c0,1.158,0.94,2.094,2.099,2.094h201.655c1.157,0,2.096-0.936,2.096-2.094V62.52
			C762.501,61.363,761.563,60.426,760.407,60.426z M761.803,62.52v9.769c0,0.771-1.323,1.396-2.094,1.396H558.751
			c-0.772,0-1.397-0.625-1.397-1.396V62.52c0-0.771,0.625-1.396,1.397-1.396h201.655C761.178,61.124,761.803,61.749,761.803,62.52
			L761.803,62.52z M762.501,56.938H518.976c-1.926,0-3.489,1.563-3.489,3.488V260.69c0,1.927,1.562,3.488,3.489,3.488h243.527
			c1.925,0,3.486-1.561,3.486-3.488V60.426C765.989,58.5,764.428,56.938,762.501,56.938z M765.292,77.872V260.69
			c0,1.541-1.251,2.791-2.791,2.791H518.974c-1.54,0-2.791-1.251-2.791-2.791V77.872H765.292L765.292,77.872z M765.292,77.174
			H516.183V60.426c0-1.54,1.251-2.791,2.791-2.791h243.527c1.54,0,2.791,1.251,2.791,2.791V77.174z M536.421,64.613
			c-1.504,0-2.73,1.251-2.73,2.792s1.223,2.791,2.73,2.791c1.506,0,2.729-1.25,2.729-2.791
			C539.15,65.863,537.927,64.613,536.421,64.613z M536.419,69.638c-1.207,0-2.187-1-2.187-2.233c0-1.234,0.98-2.234,2.187-2.234
			s2.185,1,2.185,2.234C538.604,68.638,537.624,69.638,536.419,69.638z M546.247,64.613c-1.506,0-2.729,1.251-2.729,2.792
			s1.222,2.791,2.729,2.791c1.51,0,2.731-1.25,2.731-2.791C548.979,65.863,547.757,64.613,546.247,64.613z M546.249,69.638
			c-1.206,0-2.186-1-2.186-2.233c0-1.234,0.98-2.234,2.186-2.234c1.204,0,2.184,1,2.184,2.234
			C548.433,68.638,547.454,69.638,546.249,69.638z"/>
	</g>
</g>
<g opacity="0.1">
	<g>
		<path fill="#FFFFFF" d="M772.544,533.627c-2.696,0-4.887,2.188-4.887,4.885c0,2.697,2.188,4.889,4.887,4.889
			c2.695,0,4.884-2.188,4.884-4.889C777.428,535.815,775.239,533.627,772.544,533.627z M772.544,542.856
			c-2.396,0-4.344-1.947-4.344-4.346c0-2.396,1.942-4.342,4.344-4.342c2.396,0,4.341,1.943,4.341,4.342
			C776.885,540.911,774.94,542.856,772.544,542.856z M828.366,370.348H716.72c-3.853,0-6.978,3.122-6.978,6.978v164.677
			c0,3.854,3.125,6.977,6.978,6.977h111.646c3.854,0,6.979-3.124,6.979-6.977V377.324
			C835.345,373.47,832.22,370.348,828.366,370.348z M834.646,542.001c0,3.47-2.813,6.281-6.279,6.281H716.72
			c-3.469,0-6.276-2.813-6.276-6.281V377.324c0-3.469,2.811-6.279,6.276-6.279h111.646c3.468,0,6.276,2.812,6.276,6.279v164.677
			H834.646z M819.991,384.302h-94.897c-0.771,0-1.395,0.625-1.395,1.396V526.65c0,0.77,0.624,1.396,1.395,1.396h94.897
			c0.771,0,1.396-0.627,1.396-1.396V385.697C821.387,384.927,820.764,384.302,819.991,384.302z M820.691,526.649
			c0,0.387-0.313,0.696-0.7,0.696h-94.897c-0.387,0-0.699-0.312-0.699-0.696V385.697c0-0.386,0.313-0.696,0.699-0.696h94.897
			c0.388,0,0.7,0.312,0.7,0.696V526.649z"/>
	</g>
</g>
<path opacity="0.15" fill="#FFFFFF" enable-background="new    " d="M642.218,480.507h-69.776c-3.856,0-6.979-3.125-6.979-6.977
	v-15.354v-0.697V344.438v-0.698v-11.164c0-3.854,3.125-6.979,6.979-6.979h69.775c3.855,0,6.979,3.125,6.979,6.979v124.902v0.696
	v15.354C649.196,477.38,646.072,480.505,642.218,480.507z M648.498,458.177L648.498,458.177v-0.698l0,0V344.438l0,0v-0.697l0,0
	v-11.164c0-3.467-2.808-6.28-6.279-6.28h-69.775c-3.467,0-6.28,2.812-6.28,6.28v11.164l0,0v0.697l0,0v113.04l0,0v0.696l0,0v15.354
	c0,3.465,2.813,6.276,6.28,6.276h69.775c3.469,0,6.279-2.809,6.279-6.276V458.177z M570.346,458.177h-0.695v-0.698V347.927v-0.698
	l0,0h0.695l0,0h74.661v0.698v109.552v0.698h-0.695H570.346z M644.312,347.927h-73.966v109.552h73.966V347.927z M613.609,339.553
	h-12.562c-1.155,0-2.094-0.937-2.094-2.093c0-1.157,0.939-2.094,2.094-2.094h12.562c1.157,0,2.094,0.937,2.094,2.094
	C615.703,338.616,614.766,339.553,613.609,339.553z M613.609,335.89h-12.562c-0.865,0-1.568,0.703-1.568,1.57
	c0,0.866,0.703,1.57,1.568,1.57h12.562c0.868,0,1.57-0.704,1.57-1.57C615.18,336.593,614.476,335.89,613.609,335.89z
	 M588.488,339.553c-1.156,0-2.092-0.937-2.092-2.093c0-1.157,0.936-2.094,2.092-2.094c1.158,0,2.095,0.937,2.095,2.094
	C590.583,338.616,589.646,339.553,588.488,339.553z M588.491,336.064c-0.769,0-1.394,0.626-1.394,1.396
	c0,0.771,0.626,1.396,1.394,1.396s1.396-0.624,1.396-1.396C589.887,336.69,589.26,336.064,588.491,336.064z M606.632,460.968
	c4.24,0,7.678,3.438,7.678,7.676c0,4.24-3.438,7.679-7.678,7.679c-4.237,0-7.676-3.44-7.676-7.679
	C598.956,464.403,602.393,460.968,606.632,460.968z M606.629,475.839c3.976,0,7.196-3.219,7.196-7.195
	c0-3.974-3.218-7.192-7.196-7.192c-3.971,0-7.193,3.216-7.193,7.192C599.436,472.617,602.658,475.839,606.629,475.839z
	 M605.192,465.286h2.88c1.059,0,1.919,0.854,1.919,1.917v2.879c0,1.066-0.86,1.921-1.919,1.921h-2.88
	c-1.063,0-1.918-0.858-1.918-1.921v-2.879C603.274,466.144,604.132,465.286,605.192,465.286z M603.754,470.082
	c0,0.794,0.645,1.44,1.438,1.44h2.879c0.795,0,1.44-0.646,1.44-1.44v-2.879c0-0.792-0.644-1.438-1.44-1.438h-2.879
	c-0.793,0-1.438,0.645-1.438,1.438V470.082z"/>
<path opacity="0.3" fill="#FFFFFF" enable-background="new    " d="M379.691,744.719h-69.778c-3.855,0-6.978-3.125-6.978-6.977
	v-15.354v-0.695V608.651v-0.695V596.79c0-3.854,3.124-6.979,6.978-6.979h69.778c3.855,0,6.979,3.125,6.979,6.979v124.904v0.695
	v15.354C386.67,741.595,383.547,744.72,379.691,744.719z M385.973,737.743v-15.355l0,0v-0.695l0,0V608.651l0,0v-0.695l0,0V596.79
	c0-3.466-2.812-6.279-6.28-6.279h-69.778c-3.465,0-6.278,2.812-6.278,6.279v11.166l0,0v0.695l0,0v113.043l0,0v0.695l0,0v15.354
	c0,3.467,2.811,6.278,6.278,6.278h69.778C383.16,744.021,385.973,741.213,385.973,737.743L385.973,737.743z M381.786,722.391H307.82
	h-0.698v-0.695V612.142v-0.695l0,0h0.698l0,0h74.663v0.695v109.554v0.695H381.786L381.786,722.391z M381.786,721.692V612.142
	h-73.964v109.551H381.786L381.786,721.692z M351.083,603.767h-12.561c-1.156,0-2.094-0.935-2.094-2.092s0.938-2.094,2.094-2.094
	h12.561c1.157,0,2.095,0.937,2.095,2.094S352.239,603.767,351.083,603.767z M351.084,600.108h-12.561
	c-0.867,0-1.57,0.699-1.57,1.566c0,0.866,0.702,1.57,1.57,1.57h12.561c0.865,0,1.569-0.704,1.569-1.57
	C352.653,600.808,351.949,600.105,351.084,600.108z M325.962,603.767c-1.157,0-2.095-0.935-2.095-2.092s0.939-2.094,2.095-2.094
	c1.156,0,2.094,0.937,2.094,2.094S327.119,603.767,325.962,603.767z M325.962,600.279c-0.771,0-1.396,0.625-1.396,1.396
	c0,0.77,0.625,1.396,1.396,1.396c0.77,0,1.396-0.625,1.396-1.396C327.358,600.904,326.732,600.279,325.962,600.279z M344.105,725.18
	c4.239,0,7.676,3.438,7.676,7.679c0,4.236-3.436,7.675-7.676,7.675c-4.239,0-7.676-3.439-7.676-7.675
	C336.43,728.617,339.865,725.183,344.105,725.18z M344.105,740.05c3.974,0,7.196-3.217,7.196-7.191c0-3.973-3.219-7.196-7.196-7.196
	c-3.972,0-7.196,3.221-7.196,7.196C336.91,736.833,340.13,740.053,344.105,740.05z M342.669,729.498h2.878
	c1.06,0,1.919,0.86,1.919,1.921v2.88c0,1.063-0.859,1.917-1.919,1.917h-2.878c-1.063,0-1.921-0.854-1.921-1.917v-2.88
	C340.749,730.358,341.607,729.498,342.669,729.498z M341.229,734.299c0,0.793,0.644,1.441,1.438,1.441h2.88
	c0.794,0,1.439-0.648,1.439-1.441v-2.88c0-0.794-0.643-1.438-1.439-1.438h-2.88c-0.794,0-1.438,0.644-1.438,1.438V734.299z"/>
<g opacity="0.3">
	<g>
		<path fill="#FFFFFF" d="M873.381,259.714c-2.696,0-4.883,2.187-4.883,4.885c0,2.697,2.187,4.884,4.883,4.884
			c2.699,0,4.885-2.187,4.885-4.884C878.266,261.9,876.079,259.714,873.381,259.714z M873.381,268.94
			c-2.396,0-4.343-1.944-4.343-4.34c0-2.398,1.946-4.343,4.343-4.343c2.397,0,4.341,1.945,4.341,4.343
			C877.722,266.996,875.78,268.94,873.381,268.94z M920.829,110.388h-94.898c-0.77,0-1.395,0.625-1.395,1.396v140.951
			c0,0.771,0.625,1.396,1.395,1.396h94.898c0.771,0,1.396-0.625,1.396-1.396V111.784
			C922.227,111.013,921.602,110.388,920.829,110.388z M921.527,252.735c0,0.386-0.313,0.698-0.698,0.698h-94.898
			c-0.388,0-0.692-0.313-0.692-0.698V111.784c0-0.386,0.308-0.699,0.692-0.699h94.898c0.386,0,0.698,0.313,0.698,0.699V252.735z
			 M929.204,96.433H817.559c-3.854,0-6.979,3.123-6.979,6.979v164.676c0,3.852,3.124,6.978,6.979,6.978h111.646
			c3.854,0,6.978-3.125,6.978-6.978V103.411C936.182,99.555,933.06,96.433,929.204,96.433z M935.485,268.087
			c0,3.468-2.814,6.279-6.281,6.279H817.559c-3.47,0-6.277-2.811-6.277-6.279V103.411c0-3.469,2.811-6.28,6.277-6.28h111.646
			c3.467,0,6.281,2.811,6.281,6.28L935.485,268.087L935.485,268.087z"/>
	</g>
</g>
<g opacity="0.25">
	<g>
		<path fill="#FFFFFF" d="M1045.604,626.851H933.959c-3.855,0-6.979,3.121-6.979,6.979v164.678c0,3.854,3.121,6.979,6.979,6.979
			h111.645c3.854,0,6.979-3.126,6.979-6.979v-164.68C1052.581,629.972,1049.456,626.851,1045.604,626.851z M1051.883,798.504
			c0,3.466-2.809,6.279-6.279,6.279H933.959c-3.47,0-6.28-2.813-6.28-6.279V633.826c0-3.47,2.813-6.279,6.28-6.279h111.645
			c3.474,0,6.279,2.812,6.279,6.279V798.504z M989.781,790.13c-2.697,0-4.885,2.188-4.885,4.885c0,2.698,2.188,4.888,4.885,4.888
			s4.885-2.188,4.885-4.888S992.479,790.13,989.781,790.13z M989.781,799.359c-2.398,0-4.342-1.945-4.342-4.347
			c0-2.396,1.941-4.341,4.342-4.341c2.396,0,4.341,1.945,4.341,4.341C994.122,797.414,992.181,799.359,989.781,799.359z
			 M1037.23,640.807h-94.9c-0.771,0-1.396,0.624-1.396,1.396v140.953c0,0.771,0.623,1.396,1.396,1.396h94.9
			c0.77,0,1.395-0.625,1.395-1.396V642.2C1038.625,641.431,1038,640.807,1037.23,640.807z M1037.928,783.153
			c0,0.383-0.31,0.694-0.697,0.694h-94.897c-0.383,0-0.696-0.312-0.696-0.694V642.2c0-0.386,0.313-0.697,0.696-0.697h94.897
			c0.391,0,0.697,0.313,0.697,0.697V783.153z"/>
	</g>
</g>
<path opacity="0.1" fill="#FFFFFF" enable-background="new    " d="M1049.562,211.506h-69.778c-3.854,0-6.979-3.124-6.979-6.978
	v-15.351v-0.698V75.437V74.74V63.576c0-3.855,3.125-6.979,6.979-6.979h69.778c3.857,0,6.979,3.125,6.979,6.979v124.902v0.698v15.351
	C1056.541,208.381,1053.418,211.505,1049.562,211.506z M1055.844,204.527v-15.35l0,0v-0.698l0,0V75.437l0,0V74.74l0,0V63.576
	c0-3.469-2.814-6.28-6.281-6.28h-69.777c-3.467,0-6.278,2.811-6.278,6.28V74.74l0,0v0.698l0,0v113.04l0,0v0.698l0,0v15.351
	c0,3.467,2.809,6.281,6.278,6.281h69.777C1053.029,210.808,1055.844,207.994,1055.844,204.527L1055.844,204.527z M977.689,189.177
	h-0.691v-0.698V78.927v-0.699l0,0h0.691l0,0h74.664v0.699v109.552v0.698h-0.698H977.689z M1051.655,78.927h-73.966v109.552h73.966
	V78.927z M1020.952,70.553h-12.562c-1.156,0-2.094-0.935-2.094-2.094c0-1.157,0.939-2.092,2.094-2.092h12.562
	c1.155,0,2.094,0.935,2.094,2.092C1023.046,69.618,1022.109,70.553,1020.952,70.553z M1020.955,66.889h-12.562
	c-0.866,0-1.569,0.704-1.569,1.57s0.703,1.57,1.569,1.57h12.562c0.863,0,1.568-0.704,1.568-1.57S1021.818,66.89,1020.955,66.889z
	 M995.833,70.553c-1.155,0-2.093-0.935-2.093-2.094c0-1.157,0.938-2.092,2.093-2.092c1.157,0,2.095,0.935,2.095,2.092
	C997.928,69.618,996.99,70.553,995.833,70.553z M995.833,67.064c-0.771,0-1.396,0.625-1.396,1.395c0,0.771,0.624,1.395,1.396,1.395
	c0.771,0,1.396-0.624,1.396-1.395C997.229,67.689,996.603,67.064,995.833,67.064z M1013.975,191.968c4.24,0,7.678,3.435,7.678,7.676
	c0,4.239-3.438,7.675-7.678,7.675c-4.237,0-7.675-3.435-7.675-7.675C1006.3,195.402,1009.738,191.968,1013.975,191.968z
	 M1013.973,206.839c3.972,0,7.197-3.221,7.197-7.195c0-3.975-3.223-7.196-7.197-7.196c-3.968,0-7.194,3.22-7.194,7.196
	C1006.778,203.617,1010.002,206.839,1013.973,206.839z M1012.535,196.285h2.88c1.061,0,1.919,0.86,1.919,1.919v2.88
	c0,1.06-0.858,1.92-1.919,1.92h-2.88c-1.062,0-1.916-0.86-1.916-1.92v-2.88C1010.619,197.145,1011.475,196.285,1012.535,196.285z
	 M1011.097,201.084c0,0.793,0.644,1.439,1.438,1.439h2.88c0.794,0,1.438-0.646,1.438-1.439v-2.88c0-0.794-0.643-1.438-1.438-1.438
	h-2.88c-0.793,0-1.438,0.644-1.438,1.438V201.084z"/>
<path opacity="0.1" fill="#FFFFFF" enable-background="new    " d="M1477.23,239.59h-69.779c-3.855,0-6.979-3.124-6.979-6.977
	v-15.352v-0.698V103.522v-0.698V91.659c0-3.852,3.125-6.977,6.979-6.977h69.779c3.855,0,6.979,3.125,6.979,6.977v124.903v0.698
	v15.352C1484.21,236.465,1481.086,239.589,1477.23,239.59z M1483.511,217.261L1483.511,217.261v-0.698l0,0V103.522l0,0v-0.698l0,0
	V91.659c0-3.468-2.811-6.278-6.279-6.278h-69.779c-3.467,0-6.275,2.809-6.275,6.278v11.164l0,0v0.698l0,0v113.041l0,0v0.698l0,0
	v15.352c0,3.47,2.806,6.279,6.275,6.279h69.779c3.466,0,6.279-2.809,6.279-6.279V217.261z M1479.323,217.26h-73.963h-0.698v-0.698
	V107.011v-0.698l0,0h0.698l0,0h74.662v0.698v109.551v0.698H1479.323L1479.323,217.26z M1479.323,107.011h-73.963v109.551h73.963
	V107.011z M1448.621,98.637h-12.562c-1.156,0-2.094-0.937-2.094-2.093c0-1.157,0.939-2.094,2.094-2.094h12.562
	c1.156,0,2.095,0.937,2.095,2.094C1450.716,97.701,1449.777,98.638,1448.621,98.637z M1448.625,94.973h-12.563
	c-0.866,0-1.569,0.705-1.569,1.571c0,0.867,0.703,1.57,1.569,1.57h12.563c0.862,0,1.566-0.703,1.566-1.57
	C1450.191,95.678,1449.487,94.974,1448.625,94.973z M1423.502,98.637c-1.157,0-2.096-0.937-2.096-2.093
	c0-1.157,0.94-2.094,2.096-2.094c1.154,0,2.093,0.937,2.093,2.094C1425.595,97.701,1424.656,98.637,1423.502,98.637z
	 M1423.502,95.148c-0.772,0-1.396,0.626-1.396,1.396s0.625,1.396,1.396,1.396c0.772,0,1.396-0.626,1.396-1.396
	C1424.897,95.775,1424.273,95.148,1423.502,95.148z M1441.644,220.052c4.239,0,7.677,3.437,7.677,7.675
	c0,4.24-3.438,7.676-7.677,7.676s-7.676-3.436-7.676-7.676C1433.968,223.489,1437.404,220.052,1441.644,220.052z M1441.645,234.925
	c3.971,0,7.195-3.22,7.195-7.198c0-3.974-3.221-7.196-7.195-7.196c-3.97,0-7.198,3.222-7.198,7.196
	S1437.674,234.925,1441.645,234.925z M1440.209,224.37h2.878c1.061,0,1.918,0.858,1.918,1.919v2.879c0,1.06-0.857,1.918-1.918,1.918
	h-2.878c-1.062,0-1.924-0.858-1.924-1.918v-2.879C1438.285,225.23,1439.146,224.37,1440.209,224.37z M1438.765,229.168
	c0,0.795,0.647,1.438,1.438,1.438h2.881c0.792,0,1.438-0.643,1.438-1.438v-2.879c0-0.794-0.645-1.44-1.438-1.44h-2.881
	c-0.791,0-1.438,0.646-1.438,1.44V229.168z"/>
<path opacity="0.25" fill="#FFFFFF" enable-background="new    " d="M1407.421,576.7h-69.78c-3.852,0-6.977-3.123-6.977-6.979
	V554.37v-0.696V440.633v-0.695v-11.166c0-3.853,3.125-6.978,6.977-6.978h69.78c3.856,0,6.979,3.125,6.979,6.978v124.904v0.696
	v15.352C1414.399,573.577,1411.276,576.7,1407.421,576.7z M1413.703,554.372L1413.703,554.372v-0.696l0,0V440.633l0,0v-0.695l0,0
	v-11.166c0-3.468-2.813-6.276-6.282-6.276h-69.78c-3.465,0-6.275,2.812-6.275,6.276v11.166l0,0v0.695l0,0v113.043l0,0v0.696l0,0
	v15.352c0,3.472,2.812,6.282,6.275,6.282h69.78c3.469,0,6.282-2.812,6.282-6.282V554.372z M1335.549,554.372h-0.696v-0.696V444.122
	v-0.697l0,0h0.696l0,0h74.662v0.697v109.554v0.696h-0.697H1335.549z M1409.514,444.122h-73.965v109.554h73.965V444.122z
	 M1378.812,435.748h-12.562c-1.155,0-2.094-0.938-2.094-2.093c0-1.155,0.938-2.093,2.094-2.093h12.562
	c1.155,0,2.094,0.938,2.094,2.093C1380.903,434.812,1379.968,435.748,1378.812,435.748z M1378.812,432.087h-12.562
	c-0.866,0-1.568,0.702-1.568,1.568c0,0.867,0.702,1.569,1.568,1.569h12.562c0.864,0,1.57-0.702,1.57-1.569
	C1380.383,432.789,1379.677,432.087,1378.812,432.087z M1353.689,435.748c-1.151,0-2.094-0.938-2.094-2.093
	c0-1.155,0.939-2.093,2.094-2.093s2.097,0.938,2.097,2.093C1355.786,434.812,1354.847,435.748,1353.689,435.748z M1353.689,432.261
	c-0.771,0-1.396,0.626-1.396,1.396c0,0.77,0.624,1.396,1.396,1.396c0.772,0,1.396-0.624,1.396-1.396
	C1355.087,432.887,1354.462,432.261,1353.689,432.261z M1371.832,557.165c4.24,0,7.678,3.436,7.678,7.675
	c0,4.242-3.438,7.676-7.678,7.676c-4.237,0-7.675-3.434-7.675-7.676C1364.157,560.601,1367.595,557.165,1371.832,557.165z
	 M1371.832,572.035c3.979,0,7.196-3.225,7.196-7.195c0-3.976-3.224-7.198-7.196-7.198c-3.972,0-7.193,3.226-7.193,7.198
	S1367.859,572.035,1371.832,572.035z M1370.395,561.483h2.877c1.063,0,1.925,0.854,1.925,1.916v2.88c0,1.06-0.859,1.919-1.925,1.919
	h-2.877c-1.062,0-1.918-0.859-1.918-1.919v-2.88C1368.476,562.34,1369.335,561.483,1370.395,561.483z M1368.956,566.279
	c0,0.795,0.646,1.438,1.438,1.438h2.877c0.797,0,1.438-0.644,1.438-1.438v-2.88c0-0.794-0.646-1.44-1.438-1.44h-2.877
	c-0.797,0-1.438,0.646-1.438,1.44V566.279z"/>
<path opacity="0.15" fill="#FFFFFF" enable-background="new    " d="M861.35,774.921h-69.774c-3.854,0-6.979-3.124-6.979-6.978
	V752.59v-0.695v-113.04v-0.695v-11.165c0-3.854,3.122-6.979,6.979-6.979h69.774c3.856,0,6.979,3.124,6.979,6.979v124.904v0.693
	v15.354C868.329,771.796,865.206,774.921,861.35,774.921z M867.631,752.592L867.631,752.592v-0.695l0,0V638.854l0,0v-0.694l0,0
	v-11.165c0-3.467-2.811-6.28-6.281-6.28h-69.774c-3.472,0-6.279,2.813-6.279,6.28v11.165l0,0v0.694l0,0v113.043l0,0v0.695l0,0
	v15.354c0,3.467,2.813,6.277,6.279,6.277h69.774c3.474,0,6.281-2.812,6.281-6.277V752.592z M789.479,752.592h-0.694v-0.695V642.344
	v-0.697l0,0h0.694l0,0h74.663v0.697v109.553v0.695h-0.696H789.479z M863.442,642.344h-73.968v109.553h73.968V642.344z
	 M832.743,633.97H820.18c-1.151,0-2.093-0.937-2.093-2.095c0-1.155,0.938-2.092,2.093-2.092h12.563c1.156,0,2.092,0.937,2.092,2.092
	C834.835,633.033,833.899,633.97,832.743,633.97z M832.743,630.304H820.18c-0.867,0-1.565,0.707-1.565,1.571
	c0,0.867,0.698,1.571,1.565,1.571h12.563c0.864,0,1.565-0.704,1.565-1.571C834.312,631.011,833.607,630.304,832.743,630.304z
	 M807.621,633.97c-1.156,0-2.094-0.937-2.094-2.095c0-1.155,0.938-2.092,2.094-2.092c1.157,0,2.094,0.937,2.094,2.092
	C809.715,633.033,808.778,633.97,807.621,633.97z M807.621,630.48c-0.771,0-1.396,0.625-1.396,1.395
	c0,0.771,0.625,1.396,1.396,1.396c0.771,0,1.396-0.625,1.396-1.396C809.018,631.106,808.392,630.48,807.621,630.48z
	 M825.764,755.385c4.24,0,7.678,3.438,7.678,7.674c0,4.24-3.438,7.68-7.678,7.68c-4.236,0-7.677-3.438-7.677-7.68
	C818.087,758.82,821.524,755.385,825.764,755.385z M825.764,770.255c3.979,0,7.197-3.223,7.197-7.196
	c0-3.976-3.225-7.191-7.197-7.191c-3.972,0-7.191,3.222-7.191,7.191C818.569,767.033,821.789,770.255,825.764,770.255z
	 M824.325,759.702h2.879c1.062,0,1.919,0.854,1.919,1.917v2.88c0,1.059-0.857,1.919-1.919,1.919h-2.879
	c-1.063,0-1.918-0.86-1.918-1.919v-2.88C822.407,760.56,823.265,759.702,824.325,759.702z M822.886,764.499
	c0,0.794,0.646,1.438,1.439,1.438h2.879c0.796,0,1.44-0.646,1.44-1.438v-2.88c0-0.795-0.646-1.439-1.44-1.439h-2.879
	c-0.794,0-1.439,0.646-1.439,1.439V764.499z"/>
<g opacity="0.25">
	<g>
		<path fill="#FFFFFF" d="M518.867,300.045H275.341c-1.928,0-3.489,1.563-3.489,3.488v5.584v8.373v2.791v0.697v182.817
			c0,1.928,1.561,3.488,3.489,3.488h243.526c1.928,0,3.489-1.563,3.489-3.488V320.979v-0.697v-2.791v-8.373v-5.584
			C522.356,301.608,520.795,300.045,518.867,300.045z M521.658,503.797c0,1.544-1.251,2.792-2.791,2.792H275.341
			c-1.54,0-2.792-1.248-2.792-2.792V320.979h2.792h243.526h2.791V503.797z M521.658,314.699v2.791v2.791h-2.791H275.341h-2.792
			v-2.791v-2.791v-11.166c0-1.54,1.251-2.791,2.792-2.791h243.526c1.54,0,2.791,1.251,2.791,2.791V314.699z M282.957,307.721
			c-1.509,0-2.732,1.251-2.732,2.792c0,1.54,1.223,2.79,2.732,2.79c1.506,0,2.731-1.25,2.731-2.79
			C285.688,308.972,284.463,307.721,282.957,307.721z M282.957,312.745c-1.208,0-2.185-1-2.185-2.232
			c0-1.233,0.979-2.232,2.185-2.232c1.205,0,2.183,0.999,2.183,2.232C285.14,311.745,284.162,312.745,282.957,312.745z
			 M302.615,307.721c-1.508,0-2.73,1.251-2.73,2.792c0,1.54,1.223,2.79,2.73,2.79c1.509,0,2.731-1.25,2.731-2.79
			C305.347,308.972,304.123,307.721,302.615,307.721z M302.615,312.745c-1.207,0-2.185-1-2.185-2.232
			c0-1.233,0.979-2.232,2.185-2.232c1.207,0,2.186,0.999,2.186,2.232C304.801,311.745,303.819,312.745,302.615,312.745z
			 M516.774,303.533H315.114c-1.157,0-2.093,0.938-2.093,2.095v9.77c0,1.155,0.936,2.094,2.093,2.094h201.661
			c1.153,0,2.093-0.938,2.093-2.094v-9.77C518.867,304.473,517.93,303.533,516.774,303.533z M518.168,315.396
			c0,0.771-1.322,1.396-2.092,1.396H315.114c-0.771,0-1.396-0.625-1.396-1.396v-9.77c0-0.771,0.624-1.396,1.396-1.396h201.66
			c0.77,0,1.395,0.625,1.395,1.396L518.168,315.396L518.168,315.396z M292.785,307.721c-1.509,0-2.731,1.251-2.731,2.792
			c0,1.54,1.222,2.79,2.731,2.79c1.508,0,2.732-1.25,2.732-2.79C295.517,308.972,294.293,307.721,292.785,307.721z M292.785,312.745
			c-1.206,0-2.186-1-2.186-2.232c0-1.233,0.98-2.232,2.186-2.232c1.205,0,2.184,0.999,2.184,2.232
			C294.969,311.745,293.99,312.745,292.785,312.745z"/>
	</g>
</g>
<g opacity="0.2">
	<g>
		<path fill="#FFFFFF" d="M718.528,580.984H475.002c-1.926,0-3.488,1.562-3.488,3.488v5.582v8.373v2.793v0.697v182.817
			c0,1.928,1.563,3.485,3.488,3.485h243.526c1.927,0,3.487-1.561,3.487-3.485V601.921v-0.697v-2.793v-8.373v-5.582
			C722.019,582.549,720.455,580.984,718.528,580.984z M721.319,784.738c0,1.542-1.251,2.793-2.791,2.793H475.002
			c-1.54,0-2.79-1.251-2.79-2.793V601.921h2.79h243.526h2.791V784.738L721.319,784.738z M721.319,595.64v2.791v2.793h-2.791H475.002
			h-2.79v-2.793v-2.791v-11.164c0-1.541,1.25-2.793,2.79-2.793h243.526c1.54,0,2.791,1.252,2.791,2.793V595.64L721.319,595.64z
			 M482.618,588.66c-1.509,0-2.731,1.254-2.731,2.792c0,1.54,1.225,2.793,2.731,2.793s2.729-1.253,2.729-2.793
			C485.349,589.914,484.126,588.66,482.618,588.66z M482.618,593.685c-1.207,0-2.188-0.997-2.188-2.229
			c0-1.234,0.979-2.233,2.188-2.233s2.183,0.999,2.183,2.233C484.801,592.688,483.823,593.685,482.618,593.685z M502.277,588.66
			c-1.511,0-2.731,1.254-2.731,2.792c0,1.54,1.223,2.793,2.731,2.793c1.508,0,2.729-1.253,2.729-2.793
			C505.008,589.914,503.785,588.66,502.277,588.66z M502.277,593.685c-1.208,0-2.188-0.997-2.188-2.229
			c0-1.234,0.979-2.233,2.188-2.233c1.206,0,2.185,0.999,2.185,2.233C504.462,592.688,503.48,593.685,502.277,593.685z
			 M716.436,584.476H514.776c-1.157,0-2.096,0.938-2.096,2.096v9.771c0,1.155,0.938,2.092,2.096,2.092h201.656
			c1.155,0,2.096-0.937,2.096-2.092v-9.771C718.528,585.412,717.591,584.476,716.436,584.476z M717.83,596.339
			c0,0.77-1.323,1.396-2.094,1.396h-200.96c-0.771,0-1.396-0.628-1.396-1.396v-9.771c0-0.771,0.625-1.396,1.396-1.396h201.656
			c0.771,0,1.396,0.624,1.396,1.396L717.83,596.339L717.83,596.339z M492.447,588.66c-1.512,0-2.731,1.254-2.731,2.792
			c0,1.54,1.226,2.793,2.731,2.793s2.729-1.253,2.729-2.793C495.179,589.914,493.956,588.66,492.447,588.66z M492.447,593.685
			c-1.207,0-2.188-0.997-2.188-2.229c0-1.234,0.979-2.233,2.188-2.233c1.205,0,2.183,0.999,2.183,2.233
			C494.63,592.688,493.652,593.685,492.447,593.685z"/>
	</g>
</g>
<g opacity="0.15">
	<g>
		<path fill="#FFFFFF" d="M902.968,325.585c-1.511,0-2.732,1.251-2.732,2.791s1.219,2.791,2.732,2.791
			c1.507,0,2.729-1.251,2.729-2.791C905.696,326.833,904.475,325.585,902.968,325.585z M902.967,330.608
			c-1.209,0-2.188-0.999-2.188-2.232c0-1.234,0.981-2.232,2.188-2.232c1.204,0,2.18,0.998,2.18,2.232
			C905.146,329.609,904.17,330.608,902.967,330.608z M1136.783,321.397H935.125c-1.158,0-2.098,0.937-2.098,2.093v9.77
			c0,1.158,0.942,2.094,2.098,2.094h201.656c1.157,0,2.096-0.936,2.096-2.094v-9.77
			C1138.877,322.334,1137.939,321.397,1136.783,321.397z M1138.18,323.49l0.003,9.77c0,0.772-1.327,1.396-2.099,1.396H935.125
			c-0.772,0-1.396-0.625-1.396-1.396v-9.77c0-0.77,0.625-1.396,1.396-1.396h201.658
			C1137.554,322.095,1138.18,322.721,1138.18,323.49L1138.18,323.49z M1138.877,317.909H895.354c-1.924,0-3.487,1.562-3.487,3.488
			v200.265c0,1.925,1.561,3.487,3.487,3.487h243.523c1.928,0,3.487-1.56,3.487-3.487V321.397
			C1142.364,319.473,1140.805,317.909,1138.877,317.909z M1141.668,521.662c0,1.539-1.255,2.792-2.791,2.792H895.352
			c-1.542,0-2.793-1.253-2.793-2.792V338.843h249.109V521.662z M1141.668,338.144H892.559v-16.746c0-1.539,1.251-2.79,2.793-2.79
			h243.525c1.536,0,2.791,1.251,2.791,2.79V338.144z M912.795,325.585c-1.504,0-2.73,1.251-2.73,2.791s1.224,2.791,2.73,2.791
			c1.506,0,2.729-1.251,2.729-2.791C915.524,326.833,914.301,325.585,912.795,325.585z M912.795,330.608
			c-1.207,0-2.186-0.999-2.186-2.232c0-1.234,0.979-2.232,2.186-2.232s2.186,0.998,2.186,2.232
			C914.98,329.609,914.002,330.608,912.795,330.608z M922.622,325.585c-1.506,0-2.729,1.251-2.729,2.791s1.223,2.791,2.729,2.791
			c1.509,0,2.732-1.251,2.732-2.791C925.354,326.833,924.131,325.585,922.622,325.585z M922.622,330.608
			c-1.206,0-2.185-0.999-2.185-2.232c0-1.234,0.982-2.232,2.185-2.232c1.208,0,2.188,0.998,2.188,2.232
			C924.81,329.609,923.831,330.608,922.622,330.608z"/>
	</g>
</g>
<g opacity="0.15">
	<g>
		<path fill="#FFFFFF" d="M1521.294,604.838h-243.525c-1.928,0-3.488,1.562-3.488,3.488v5.581v8.375v2.789v0.7V808.59
			c0,1.925,1.562,3.488,3.488,3.488h243.525c1.928,0,3.488-1.563,3.488-3.488V625.771v-0.7v-2.789v-8.375v-5.581
			C1524.782,606.396,1523.222,604.838,1521.294,604.838z M1524.086,808.591c0,1.543-1.251,2.79-2.792,2.79H1277.77
			c-1.543,0-2.793-1.247-2.793-2.79V625.771h2.793h243.524h2.792V808.591z M1524.086,619.49v2.792v2.789h-2.792H1277.77h-2.793
			v-2.789v-2.792v-11.164c0-1.54,1.25-2.792,2.793-2.792h243.524c1.541,0,2.792,1.252,2.792,2.792V619.49z M1285.384,612.513
			c-1.509,0-2.729,1.251-2.729,2.791c0,1.539,1.222,2.791,2.729,2.791s2.73-1.252,2.73-2.791
			C1288.114,613.764,1286.891,612.513,1285.384,612.513z M1285.384,617.536c-1.207,0-2.187-0.999-2.187-2.232
			c0-1.232,0.979-2.229,2.187-2.229c1.203,0,2.187,0.997,2.187,2.229C1287.567,616.537,1286.587,617.536,1285.384,617.536z
			 M1305.042,612.513c-1.508,0-2.731,1.251-2.731,2.791c0,1.539,1.227,2.791,2.731,2.791c1.51,0,2.732-1.252,2.732-2.791
			C1307.774,613.764,1306.551,612.513,1305.042,612.513z M1305.042,617.536c-1.206,0-2.184-0.999-2.184-2.232
			c0-1.232,0.979-2.229,2.184-2.229c1.206,0,2.187,0.997,2.187,2.229C1307.229,616.537,1306.245,617.536,1305.042,617.536z
			 M1519.2,608.326h-201.66c-1.156,0-2.093,0.935-2.093,2.093v9.771c0,1.152,0.937,2.094,2.093,2.094h201.66
			c1.155,0,2.094-0.938,2.094-2.094v-9.771C1521.294,609.264,1520.355,608.326,1519.2,608.326z M1520.597,620.188
			c0,0.771-1.32,1.396-2.093,1.396H1317.54c-0.771,0-1.394-0.625-1.394-1.396v-9.77c0-0.771,0.623-1.394,1.394-1.394h201.66
			c0.771,0,1.396,0.618,1.396,1.394L1520.597,620.188L1520.597,620.188z M1295.212,612.513c-1.508,0-2.729,1.251-2.729,2.791
			c0,1.539,1.223,2.791,2.729,2.791c1.512,0,2.731-1.252,2.731-2.791C1297.943,613.764,1296.724,612.513,1295.212,612.513z
			 M1295.212,617.536c-1.206,0-2.184-0.999-2.184-2.232c0-1.232,0.978-2.229,2.184-2.229c1.205,0,2.183,0.997,2.183,2.229
			C1297.395,616.537,1296.417,617.536,1295.212,617.536z"/>
	</g>
</g>
<path opacity="0.1" fill="#FFFFFF" enable-background="new    " d="M1190.032,714.859h-69.78c-3.854,0-6.978-3.125-6.978-6.979
	v-15.351v-0.698V578.789v-0.695v-11.167c0-3.852,3.124-6.975,6.978-6.975h69.78c3.855,0,6.979,3.123,6.979,6.975v124.904v0.698
	v15.351C1197.011,711.733,1193.889,714.857,1190.032,714.859z M1196.311,692.529L1196.311,692.529v-0.698l0,0V578.789l0,0v-0.695
	l0,0v-11.167c0-3.467-2.809-6.275-6.278-6.275h-69.78c-3.465,0-6.275,2.806-6.275,6.275v11.167l0,0v0.695l0,0v113.042l0,0v0.698l0,0
	v15.351c0,3.468,2.808,6.28,6.275,6.28h69.78c3.467,0,6.278-2.81,6.278-6.28V692.529z M1118.158,692.529h-0.695v-0.698V582.279
	v-0.696l0,0h0.695l0,0h74.663v0.696v109.552v0.698h-0.696H1118.158z M1192.125,582.279h-73.967v109.552h73.967V582.279z
	 M1161.422,573.91h-12.56c-1.157,0-2.095-0.939-2.095-2.098c0-1.154,0.939-2.093,2.095-2.093h12.56c1.155,0,2.092,0.938,2.092,2.093
	C1163.514,572.971,1162.577,573.907,1161.422,573.91z M1161.422,570.246h-12.56c-0.868,0-1.569,0.703-1.569,1.566
	c0,0.867,0.701,1.571,1.569,1.571h12.56c0.866,0,1.57-0.704,1.57-1.571C1162.992,570.946,1162.288,570.243,1161.422,570.246z
	 M1136.298,573.91c-1.153,0-2.092-0.939-2.092-2.098c0-1.154,0.938-2.093,2.092-2.093c1.16,0,2.099,0.938,2.099,2.093
	C1138.396,572.971,1137.458,573.907,1136.298,573.91z M1136.301,570.419c-0.769,0-1.393,0.626-1.393,1.394
	c0,0.771,0.624,1.396,1.393,1.396c0.771,0,1.396-0.625,1.396-1.396C1137.697,571.045,1137.072,570.419,1136.301,570.419z
	 M1154.443,695.321c4.24,0,7.677,3.436,7.677,7.676s-3.437,7.676-7.677,7.676c-4.237,0-7.675-3.436-7.675-7.676
	S1150.206,695.321,1154.443,695.321z M1154.444,710.193c3.971,0,7.197-3.225,7.197-7.196s-3.222-7.198-7.197-7.198
	c-3.974,0-7.196,3.224-7.196,7.198C1147.248,706.97,1150.471,710.193,1154.444,710.193z M1153.006,699.639h2.879
	c1.063,0,1.922,0.857,1.922,1.919v2.88c0,1.063-0.858,1.921-1.922,1.921h-2.879c-1.059,0-1.919-0.857-1.919-1.921v-2.88
	C1151.087,700.496,1151.947,699.639,1153.006,699.639z M1151.564,704.438c0,0.793,0.645,1.438,1.438,1.438h2.878
	c0.794,0,1.44-0.644,1.44-1.438v-2.88c0-0.792-0.643-1.438-1.44-1.438h-2.878c-0.792,0-1.438,0.644-1.438,1.438V704.438z"/>
<g opacity="0.3">
	<g>
		<path fill="#FFFFFF" d="M1355.223,20.095h-243.523c-1.93,0-3.487,1.561-3.487,3.489v5.581v8.375v2.791v0.697v182.819
			c0,1.927,1.562,3.489,3.487,3.489h243.523c1.931,0,3.487-1.562,3.487-3.489V41.028v-0.697V37.54v-8.375v-5.581
			C1358.71,21.656,1357.15,20.095,1355.223,20.095z M1358.013,223.848c0,1.543-1.251,2.791-2.79,2.791h-243.523
			c-1.541,0-2.793-1.248-2.793-2.791V41.028h2.793h243.523h2.79V223.848z M1358.013,34.749v2.791v2.791h-2.79h-243.523h-2.793V37.54
			v-2.791V23.584c0-1.54,1.252-2.792,2.793-2.792h243.523c1.539,0,2.79,1.251,2.79,2.792V34.749z M1119.312,27.77
			c-1.511,0-2.731,1.253-2.731,2.792c0,1.54,1.224,2.791,2.731,2.791c1.509,0,2.73-1.251,2.73-2.791S1120.818,27.77,1119.312,27.77z
			 M1119.312,32.794c-1.209,0-2.186-0.999-2.186-2.232c0-1.235,0.979-2.232,2.186-2.232c1.205,0,2.184,0.997,2.184,2.232
			C1121.493,31.795,1120.518,32.794,1119.312,32.794z M1138.971,27.77c-1.51,0-2.729,1.253-2.729,2.792
			c0,1.54,1.221,2.791,2.729,2.791s2.731-1.251,2.731-2.791S1140.479,27.77,1138.971,27.77z M1138.971,32.794
			c-1.208,0-2.186-0.999-2.186-2.232c0-1.235,0.979-2.232,2.186-2.232c1.205,0,2.187,0.997,2.187,2.232
			C1141.154,31.795,1140.174,32.794,1138.971,32.794z M1353.129,23.584h-201.658c-1.16,0-2.097,0.936-2.097,2.093v9.769
			c0,1.156,0.937,2.094,2.097,2.094h201.658c1.156,0,2.094-0.938,2.094-2.094v-9.769
			C1355.223,24.521,1354.285,23.584,1353.129,23.584z M1354.523,35.446c0,0.771-1.323,1.395-2.097,1.395H1151.47
			c-0.771,0-1.396-0.625-1.396-1.395v-9.769c0-0.771,0.623-1.396,1.396-1.396h201.658c0.768,0,1.396,0.625,1.396,1.396V35.446
			L1354.523,35.446z M1129.142,27.77c-1.511,0-2.73,1.253-2.73,2.792c0,1.54,1.223,2.791,2.73,2.791
			c1.507,0,2.729-1.251,2.729-2.791C1131.87,29.022,1130.646,27.77,1129.142,27.77z M1129.142,32.794
			c-1.208,0-2.188-0.999-2.188-2.232c0-1.235,0.979-2.232,2.188-2.232c1.204,0,2.186,0.997,2.186,2.232
			C1131.324,31.795,1130.346,32.794,1129.142,32.794z"/>
	</g>
</g>
<g opacity="0.15">
	<g>
		<path fill="#FFFFFF" d="M1497.268,455.228c-2.694,0-4.886,2.188-4.886,4.89c0,2.693,2.188,4.884,4.886,4.884
			c2.698,0,4.888-2.188,4.888-4.884C1502.152,457.414,1499.966,455.228,1497.268,455.228z M1497.268,464.455
			c-2.396,0-4.342-1.943-4.342-4.34c0-2.397,1.947-4.344,4.342-4.344c2.396,0,4.344,1.943,4.344,4.344
			C1501.608,462.512,1499.667,464.455,1497.268,464.455z M1544.717,305.902h-94.896c-0.771,0-1.396,0.625-1.396,1.396v140.953
			c0,0.771,0.627,1.396,1.396,1.396h94.896c0.771,0,1.396-0.625,1.396-1.396V307.298
			C1546.113,306.527,1545.486,305.902,1544.717,305.902z M1545.415,448.251c0,0.384-0.313,0.697-0.698,0.697h-94.896
			c-0.389,0-0.697-0.313-0.697-0.697V307.298c0-0.386,0.312-0.697,0.697-0.697h94.896c0.385,0,0.698,0.312,0.698,0.697V448.251z
			 M1553.09,291.947h-111.645c-3.854,0-6.98,3.123-6.98,6.978v164.677c0,3.854,3.126,6.979,6.98,6.979h111.645
			c3.855,0,6.979-3.126,6.979-6.979V298.925C1560.066,295.07,1556.945,291.947,1553.09,291.947z M1559.372,463.602
			c0,3.472-2.814,6.277-6.282,6.277h-111.645c-3.474,0-6.28-2.809-6.28-6.277V298.925c0-3.467,2.81-6.28,6.28-6.28h111.645
			c3.468,0,6.282,2.813,6.282,6.28V463.602z"/>
	</g>
</g>
</svg>
